<?xml version="1.0" encoding="UTF-8" standalone="no"?>
<!-- Created with Inkscape (http://www.inkscape.org/) -->

<svg
   xmlns:osb="http://www.openswatchbook.org/uri/2009/osb"
   xmlns:dc="http://purl.org/dc/elements/1.1/"
   xmlns:cc="http://creativecommons.org/ns#"
   xmlns:rdf="http://www.w3.org/1999/02/22-rdf-syntax-ns#"
   xmlns:svg="http://www.w3.org/2000/svg"
   xmlns="http://www.w3.org/2000/svg"
   xmlns:sodipodi="http://sodipodi.sourceforge.net/DTD/sodipodi-0.dtd"
   xmlns:inkscape="http://www.inkscape.org/namespaces/inkscape"
   width="1280"
   height="800"
   id="svg2"
   version="1.1"
   inkscape:version="0.48.4 r9939"
   sodipodi:docname="CerberusLogo.svg">
  <defs
     id="defs4">
    <linearGradient
       id="linearGradient3903"
       osb:paint="solid">
      <stop
         style="stop-color:#000000;stop-opacity:1;"
         offset="0"
         id="stop3905" />
    </linearGradient>
  </defs>
  <sodipodi:namedview
     id="base"
     pagecolor="#ffffff"
     bordercolor="#666666"
     borderopacity="1.0"
     inkscape:pageopacity="0.0"
     inkscape:pageshadow="2"
     inkscape:zoom="0.7"
     inkscape:cx="526.79475"
     inkscape:cy="338.17097"
     inkscape:document-units="px"
     inkscape:current-layer="layer1"
     showgrid="false"
     width="1280px"
     inkscape:window-width="1280"
     inkscape:window-height="725"
     inkscape:window-x="0"
     inkscape:window-y="25"
     inkscape:window-maximized="1" />
  <metadata
     id="metadata7">
    <rdf:RDF>
      <cc:Work
         rdf:about="">
        <dc:format>image/svg+xml</dc:format>
        <dc:type
           rdf:resource="http://purl.org/dc/dcmitype/StillImage" />
        <dc:title></dc:title>
      </cc:Work>
    </rdf:RDF>
  </metadata>
  <g
     inkscape:label="Layer 1"
     inkscape:groupmode="layer"
     id="layer1"
     transform="translate(0,-252.36213)">
    <rect
       style="fill:#000000;fill-opacity:1;fill-rule:nonzero;stroke:#000000;stroke-width:9.98972034;stroke-linecap:butt;stroke-miterlimit:4;stroke-opacity:1;stroke-dasharray:none"
       id="rect2985"
       width="1268.8618"
       height="791.05963"
       x="6.005795"
       y="257.31696" />
    <text
       xml:space="preserve"
       style="font-size:400px;font-style:normal;font-weight:normal;line-height:125%;letter-spacing:0px;word-spacing:0px;fill:#0000ff;fill-opacity:1;stroke:none;font-family:Sans"
       x="36.370396"
       y="901.52393"
       id="text3885"
       sodipodi:linespacing="125%"><tspan
         sodipodi:role="line"
         x="36.370396"
         y="901.52393"
         id="tspan3887"><tspan
           x="36.370396"
           y="901.52393"
           id="tspan3889">C</tspan></tspan></text>
    <text
       xml:space="preserve"
       style="font-size:144px;font-style:normal;font-weight:bold;line-height:125%;letter-spacing:0px;word-spacing:0px;fill:#0000ff;fill-opacity:1;stroke:none;font-family:Sans;-inkscape-font-specification:Sans Bold"
       x="298.9938"
       y="731.23633"
       id="text3891"
       sodipodi:linespacing="125%"><tspan
         sodipodi:role="line"
         x="298.9938"
         y="731.23633"
         id="tspan3893"><tspan
           x="298.9938"
           y="731.23633"
           id="tspan3895">++</tspan></tspan></text>
    <g
       id="g3919">
      <text
         sodipodi:linespacing="125%"
         id="text3897"
         y="893.57196"
         x="303.0321"
         style="font-size:240px;font-style:normal;font-weight:normal;line-height:125%;letter-spacing:0px;word-spacing:0px;fill:#0000ff;fill-opacity:1;stroke:none;font-family:Sans"
         xml:space="preserve"><tspan
           id="tspan3899"
           y="893.57196"
           x="303.0321"
           sodipodi:role="line"><tspan
             id="tspan3901"
             y="893.57196"
             x="303.0321">erberus</tspan></tspan></text>
      <rect
         transform="matrix(0.96372606,0,0,3.104815,19.263881,-1318.3242)"
         y="630.07776"
         x="571.74634"
         height="82.832512"
         width="25.253813"
         id="rect3011"
         style="fill:#000000;fill-opacity:1;fill-rule:nonzero;stroke:#0000ff;stroke-width:3.77501356;stroke-miterlimit:4;stroke-opacity:1;stroke-dasharray:none" />
    </g>
  </g>
</svg>
